{
  "dev": {
    "awscloudformation": {
      "AuthRoleName": "amplify-awspoc-dev-152755-authRole",
      "UnauthRoleArn": "arn:aws:iam::482643951417:role/amplify-awspoc-dev-152755-unauthRole",
      "AuthRoleArn": "arn:aws:iam::482643951417:role/amplify-awspoc-dev-152755-authRole",
      "Region": "us-east-1",
      "DeploymentBucketName": "amplify-awspoc-dev-152755-deployment",
      "UnauthRoleName": "amplify-awspoc-dev-152755-unauthRole",
      "StackName": "amplify-awspoc-dev-152755",
      "StackId": "arn:aws:cloudformation:us-east-1:482643951417:stack/amplify-awspoc-dev-152755/c4f4e720-000a-11ec-a505-0afdb21fa153",
      "AmplifyAppId": "d3onwn3vmhiy7c"
    },
    "categories": {
      "auth": {
        "awspoca8499f42": {}
      }
    }
  }
}